{
  "order" : 1,
  "index_patterns" : ["monit_prod_fts_raw_start*"],
  "settings" : {
    "index" : {
      "number_of_shards" : "1"
    }
  },
  "mappings" : {
    "properties" : {
      "data" : {
        "properties" : {
          "job_metadata" : {
            "type" : "object"
          },
          "file_metadata" : {
            "type" : "object"
          },
          "timestamp" : {
            "type" : "date"
          }
        }
      }
    }
  },
  "aliases" : {
    "monit_prod_fts" : { },
    "monit_prod_fts_raw_start" : { }
  }
}
