{
  "index_patterns" : ["monit_prod_xrootd_enr_gled*"],
  "order" : 1,
  "settings" : {
    "index" : {
      "number_of_shards" : "2"
    }
  },
  "mappings" : {
    "properties" : {
      "data" : {
        "properties" : {
          "start_time" : {
            "type" : "date"
          },
          "end_time" : {
            "type" : "date"
          }
        }
      }
    }
  },
  "aliases" : {
    "monit_prod_enr_gled" : { },
    "monit_prod_xrootd_enr_gled" : { },
    "monit_prod_xrootd" : { },
    "monit_prod" : { },
    "monit_prod_transfers" : { }
  }
}
